{
  "formatVersion": 1,
  "database": {
    "version": 1,
    "identityHash": "05613dc8123dc7eb4ed1e69cea03f29d",
    "entities": [
      {
        "tableName": "key",
        "createSql": "CREATE TABLE IF NOT EXISTS `${TABLE_NAME}` (`id` INTEGER PRIMARY KEY AUTOINCREMENT, `timestamp` INTEGER NOT NULL, `organization` TEXT NOT NULL, `url` TEXT NOT NULL, `nfc` TEXT NOT NULL, `userName` TEXT NOT NULL, `fingerprintPass` TEXT)",
        "fields": [
          {
            "fieldPath": "id",
            "columnName": "id",
            "affinity": "INTEGER",
            "notNull": false
          },
          {
            "fieldPath": "timestamp",
            "columnName": "timestamp",
            "affinity": "INTEGER",
            "notNull": true
          },
          {
            "fieldPath": "organization",
            "columnName": "organization",
            "affinity": "TEXT",
            "notNull": true
          },
          {
            "fieldPath": "url",
            "columnName": "url",
            "affinity": "TEXT",
            "notNull": true
          },
          {
            "fieldPath": "nfc",
            "columnName": "nfc",
            "affinity": "TEXT",
            "notNull": true
          },
          {
            "fieldPath": "userName",
            "columnName": "userName",
            "affinity": "TEXT",
            "notNull": true
          },
          {
            "fieldPath": "fingerprintPass",
            "columnName": "fingerprintPass",
            "affinity": "TEXT",
            "notNull": false
          }
        ],
        "primaryKey": {
          "columnNames": [
            "id"
          ],
          "autoGenerate": true
        },
        "indices": [
          {
            "name": "index_key_nfc",
            "unique": true,
            "columnNames": [
              "nfc"
            ],
            "createSql": "CREATE UNIQUE INDEX `index_key_nfc` ON `${TABLE_NAME}` (`nfc`)"
          }
        ],
        "foreignKeys": []
      }
    ],
    "setupQueries": [
      "CREATE TABLE IF NOT EXISTS room_master_table (id INTEGER PRIMARY KEY,identity_hash TEXT)",
      "INSERT OR REPLACE INTO room_master_table (id,identity_hash) VALUES(42, \"05613dc8123dc7eb4ed1e69cea03f29d\")"
    ]
  }
}